…
#Add replicates and sample measurement noise
data_balanced = dplyr::tibble(individual = paste0("ind_", rep(c(1,2,3,4,5), times = replicate_counts))) %>%
  dplyr::left_join(ind_means, by = "individual") %>%
  #Sample measurement noise from the normal distribution with variance var_noise
  dplyr::mutate(noise = rnorm(length(individual), mean = 0, sd = sqrt(var_noise))) %>%
  dplyr::mutate(expression = individual_mean + noise) %>%
  dplyr::mutate(sample_index = c(1:length(individual)))
data_balanced
```

```
## # A tibble: 50 x 5
##    individual individual_mean    noise expression sample_index
##    <chr>                <dbl>    <dbl>      <dbl>        <int>
##  1 ind_1              -0.0982 -0.322       -0.420            1
##  2 ind_1              -0.0982  0.474        0.376            2
##  3 ind_1              -0.0982 -0.600       -0.699            3
##  4 ind_1              -0.0982  0.754        0.656            4
##  5 ind_1              -0.0982 -0.00528     -0.103            5
##  6 ind_1              -0.0982 -0.285       -0.383            6
##  7 ind_1              -0.0982  0.508        0.410            7
##  8 ind_1              -0.0982 -0.127       -0.226            8
##  9 ind_1              -0.0982  0.740        0.642            9
## 10 ind_1              -0.0982  0.284        0.186           10
## # … with 40 more rows
```
…
#Add replicates and sample measurement noise
data_unbalanced = dplyr::data_frame(individual = paste0("ind_", rep(c(1,2,3,4,5), times = replicate_counts))) %>%
  dplyr::left_join(ind_means, by = "individual") %>%
  #Sample measurement noise from the normal distribution with variance var_noise
  dplyr::mutate(noise = rnorm(length(individual), mean = 0, sd = sqrt(var_noise))) %>%
  dplyr::mutate(expression = individual_mean + noise) %>%
  dplyr::mutate(sample_index = c(1:length(individual)))
data_unbalanced
```

```
## # A tibble: 50 x 5
##    individual individual_mean  noise expression sample_index
##    <chr>                <dbl>  <dbl>      <dbl>        <int>
##  1 ind_1                0.681 -0.726    -0.0457            1
##  2 ind_1                0.681  0.992     1.67              2
##  3 ind_1                0.681 -0.926    -0.245             3
##  4 ind_1                0.681 -1.26     -0.584             4
##  5 ind_1                0.681 -0.512     0.168             5
##  6 ind_1                0.681  0.216     0.896             6
##  7 ind_1                0.681  0.596     1.28              7
##  8 ind_1                0.681  0.481     1.16              8
##  9 ind_1                0.681  0.474     1.15              9
## 10 ind_1                0.681 -0.339     0.342            10
## # … with 40 more rows
```
…
