…
#Identify genes that are signficantly differentially expressed:

```r
filtered_genes = dplyr::mutate(as.data.frame(ifng_results), gene_id = rownames(ifng_results)) %>% 
  dplyr::as_tibble() %>% 
  dplyr::filter(!is.na(padj)) %>% #Remove NA p-values
  dplyr::filter(padj < 0.01) %>% #Filter according to FDR
  dplyr::filter(abs(log2FoldChange) > 1) %>% #Filter according to fold-change
  dplyr::arrange(-log2FoldChange) #Sort by fold change
filtered_genes
```

```
## # A tibble: 3,163 × 7
##    baseMean log2FoldChange lfcSE  stat   pvalue     padj gene_id        
##       <dbl>          <dbl> <dbl> <dbl>    <dbl>    <dbl> <chr>          
##  1    234.            9.36 0.717 13.1  5.87e-39 7.10e-37 ENSG00000253838
##  2  29616.            8.80 0.912  9.65 4.82e-22 1.99e-20 ENSG00000169248
##  3     31.8           8.79 0.809 10.9  1.67e-27 1.04e-25 ENSG00000267074
##  4     83.1           8.79 0.838 10.5  1.01e-25 5.54e-24 ENSG00000188676
##  5 374230.            8.73 1.00   8.71 2.91e-18 9.34e-17 ENSG00000138755
##  6  12165.            8.44 0.961  8.78 1.60e-18 5.21e-17 ENSG00000154451
##  7    120.            8.42 0.721 11.7  1.78e-31 1.44e-29 ENSG00000121380
##  8  66183.            8.33 0.915  9.10 8.73e-20 3.12e-18 ENSG00000131203
##  9     29.6           8.32 0.900  9.24 2.49e-20 9.14e-19 ENSG00000213512
## 10     25.8           8.12 0.796 10.2  1.84e-24 9.23e-23 ENSG00000227531
## # ℹ 3,153 more rows
```
…
