…
``` r
ctla4_data
```

```
## # A tibble: 5,765 × 18
##    molecular_trait_id chromosome  position ref   alt   variant ma_samples    maf
##    <chr>                   <dbl>     <dbl> <chr> <chr> <chr>        <dbl>  <dbl>
##  1 ENSG00000163599             2 202868828 C     T     chr2_2…        370 0.239 
##  2 ENSG00000163599             2 202869266 G     A     chr2_2…        245 0.133 
##  3 ENSG00000163599             2 202869642 A     T     chr2_2…        245 0.133 
##  4 ENSG00000163599             2 202870143 C     A     chr2_2…        245 0.133 
##  5 ENSG00000163599             2 202871373 G     A     chr2_2…         40 0.0204
##  6 ENSG00000163599             2 202871479 CCG   C     chr2_2…        245 0.133 
##  7 ENSG00000163599             2 202871516 GC    G     chr2_2…         44 0.0224
##  8 ENSG00000163599             2 202871528 C     G     chr2_2…        245 0.133 
##  9 ENSG00000163599             2 202871777 C     T     chr2_2…         25 0.0127
## 10 ENSG00000163599             2 202872522 ATTT… A     chr2_2…         21 0.0107
## # ℹ 5,755 more rows
## # ℹ 10 more variables: pvalue <dbl>, beta <dbl>, se <dbl>, type <chr>,
## #   ac <dbl>, an <dbl>, r2 <dbl>, molecular_trait_object_id <chr>,
## #   gene_id <chr>, median_tpm <lgl>
```
…
``` r
ra_data
```

```
## # A tibble: 29,166 × 10
##    `#CHR`       POS REF    ALT   SNP            beta     se      p mlogp variant
##    <chr>      <dbl> <chr>  <chr> <chr>         <dbl>  <dbl>  <dbl> <dbl> <chr>  
##  1 #CHR   202868829 G      T     2:2028688… -0.711   0.435  0.102   0.99 chr2_2…
##  2 #CHR   202868969 AAAC   A     2:2028689… -0.173   0.307  0.573   0.24 chr2_2…
##  3 #CHR   202868999 A      C     2:2028689…  0.0273  0.789  0.972   0.01 chr2_2…
##  4 #CHR   202869040 TATCA  T     2:2028690… -0.313   0.594  0.599   0.22 chr2_2…
##  5 #CHR   202869266 G      A     2:2028692… -0.0279  0.0125 0.0255  1.59 chr2_2…
##  6 #CHR   202869290 G      A     2:2028692… -0.00362 0.065  0.956   0.02 chr2_2…
##  7 #CHR   202869356 CA     C     2:2028693…  0.0875  0.0888 0.325   0.49 chr2_2…
##  8 #CHR   202869372 GAAATA G     2:2028693… -0.0453  0.101  0.655   0.18 chr2_2…
##  9 #CHR   202869642 A      T     2:2028696… -0.0274  0.0123 0.0255  1.59 chr2_2…
## 10 #CHR   202869958 C      T     2:2028699… -0.93    1.16   0.422   0.37 chr2_2…
## # ℹ 29,156 more rows
```
…
