…
The simplest thing to do is to extract the TRAF1 eQTL summary statistics from the file using grep:
```{
gunzip -c  RNA_FastQTL_IFNg_SL1344_500kb_pvalues.sorted.txt.gz | grep ENSG00000056558 > TRAF1_eQTL.txt
```

Now we can just load the eQTL summary statistics into R

```r
eQTL_summaries = read.table("TRAF1_eQTL.txt", stringsAsFactors = FALSE, col.names = c("phenotype_id","chr","pos","snp_id","distance","p_nominal","beta")) %>% tbl_df()
eQTL_summaries
```

```
## # A tibble: 1,494 x 7
##    phenotype_id      chr       pos snp_id     distance p_nominal    beta
##    <chr>           <int>     <int> <chr>         <int>     <dbl>   <dbl>
##  1 ENSG00000056558     9 120403829 rs16909739  -498565    0.0385  0.110 
##  2 ENSG00000056558     9 120403882 rs2297453   -498512    0.345  -0.0317
##  3 ENSG00000056558     9 120404641 rs3780674   -497753    0.176  -0.0513
##  4 ENSG00000056558     9 120407440 rs2282168   -494954    0.616  -0.0176
##  5 ENSG00000056558     9 120407793 rs1888893   -494601    0.285  -0.0367
##  6 ENSG00000056558     9 120407889 rs914592    -494505    0.501  -0.0236
##  7 ENSG00000056558     9 120407932 rs914593    -494462    0.616  -0.0176
##  8 ENSG00000056558     9 120408455 rs4837768   -493939    0.396  -0.0284
##  9 ENSG00000056558     9 120408642 rs7874364   -493752    0.225  -0.0403
## 10 ENSG00000056558     9 120409378 rs36054791  -493016    0.377  -0.0606
## # ... with 1,484 more rows
```

We can also import the rheumatoid arhtris (RA) GWAS summary statistics from the TRAF1 locus:

```r
gwas_summaries = read.table("RA_GWAS_TRAF1_locus.txt", stringsAsFactors = FALSE, header = TRUE) %>% tbl_df()
gwas_summaries
```

```
## # A tibble: 626 x 14
##    effect_allele p_nominal beta     OR  log_OR     se z_score trait   PMID
##    <chr>             <dbl> <lgl> <dbl>   <dbl>  <dbl>   <dbl> <chr>  <int>
##  1 T               0.0660  NA    0.970 -0.0305 0.0166  -1.84  Rheu… 2.44e7
##  2 T               0.0170  NA    0.960 -0.0408 0.0171  -2.39  Rheu… 2.44e7
##  3 G               0.700   NA    0.980 -0.0202 0.0524  -0.385 Rheu… 2.44e7
##  4 T               0.120   NA    1.03   0.0296 0.0190   1.55  Rheu… 2.44e7
##  5 A               0.00680 NA    1.05   0.0488 0.0180   2.71  Rheu… 2.44e7
##  6 T               0.00670 NA    1.05   0.0488 0.0180   2.71  Rheu… 2.44e7
##  7 G               0.00680 NA    1.05   0.0488 0.0180   2.71  Rheu… 2.44e7
##  8 G               0.00680 NA    1.05   0.0488 0.0180   2.71  Rheu… 2.44e7
##  9 T               0.00690 NA    0.960 -0.0408 0.0151  -2.70  Rheu… 2.44e7
## 10 T               0.00660 NA    1.05   0.0488 0.0180   2.72  Rheu… 2.44e7
## # ... with 616 more rows, and 5 more variables: used_file <chr>,
## #   snp_id <chr>, chr <int>, pos <int>, MAF <dbl>
```
…
