…
In this tutorial, we are going explore explore how association testing works. Our trait of interest is the expression level of the CTLA4 gene in CD4+ T-cells in the OneK1K dataset and we are going to explore how genetic variants near that gene are associated with its expression level. 

## Importing the data

All of the data that you need for this tutorial is stored in the OneK1K_CTLA4_data.tsv.gz file. Let's first read it in


``` r
ctla4_df = readr::read_tsv("OneK1K_CTLA4_data.tsv.gz", show_col_types = FALSE)
ctla4_df
```

```
## # A tibble: 981 × 1,395
##    sample_id genotype_id qtl_group sex     ctla4 chr2_203674302_G_A
##    <chr>     <chr>       <chr>     <chr>   <dbl>              <dbl>
##  1 ind_871   OneK1K_871  CD4_Naive female  0.654                  0
##  2 ind_724   OneK1K_724  CD4_Naive female  1.11                   0
##  3 ind_319   OneK1K_319  CD4_Naive female  1.42                   0
##  4 ind_45    OneK1K_45   CD4_Naive male    0.261                  0
##  5 ind_767   OneK1K_767  CD4_Naive male    0.429                  0
##  6 ind_721   OneK1K_721  CD4_Naive male    2.20                   0
##  7 ind_596   OneK1K_596  CD4_Naive male   -1.30                   0
##  8 ind_92    OneK1K_92   CD4_Naive male    0.759                  0
##  9 ind_856   OneK1K_856  CD4_Naive female -0.605                  0
## 10 ind_559   OneK1K_559  CD4_Naive female -1.69                   0
## # ℹ 971 more rows
## # ℹ 1,389 more variables: chr2_203674547_C_A <dbl>, chr2_203675250_G_A <dbl>,
## #   chr2_203677114_C_CAA <dbl>, chr2_203677388_CAT_C <dbl>,
## #   chr2_203677388_C_CATAT <dbl>, chr2_203677810_A_AT <dbl>,
## #   chr2_203677955_C_T <dbl>, chr2_203677967_C_T <dbl>,
## #   chr2_203678432_A_G <dbl>, chr2_203678522_G_A <dbl>,
## #   chr2_203679704_T_A <dbl>, chr2_203679919_C_T <dbl>, …
```
…
``` r
fitted$variant_id = colnames(standard_genotypes)
```
and extract the univariate z scores:

``` r
z_df = dplyr::tibble(variant = fitted$variant_id, z = fitted$z) %>%
  dplyr::mutate(varaint_rank = c(1:n()))
z_df
```

```
## # A tibble: 1,390 × 3
##    variant                     z varaint_rank
##    <chr>                   <dbl>        <int>
##  1 chr2_203674302_G_A     -1.18             1
##  2 chr2_203674547_C_A     -1.18             2
##  3 chr2_203675250_G_A      3.68             3
##  4 chr2_203677114_C_CAA   -1.64             4
##  5 chr2_203677388_CAT_C    1.49             5
##  6 chr2_203677388_C_CATAT -1.18             6
##  7 chr2_203677810_A_AT    -0.618            7
##  8 chr2_203677955_C_T     -0.612            8
##  9 chr2_203677967_C_T     -1.18             9
## 10 chr2_203678432_A_G     -1.18            10
## # ℹ 1,380 more rows
```

Calculate LD between the lead variant (=variant with the largest absolute Z score) and all other variants:


``` r
ld_matrix = cor(standard_genotypes)^2
ld_with_lead = ld_matrix["chr2_203874196_G_A",]
ld_df = dplyr::tibble(ld = ld_with_lead, variant = names(ld_with_lead))
ld_df
```

```
## # A tibble: 1,390 × 2
##           ld variant               
##        <dbl> <chr>                 
##  1 0.00669   chr2_203674302_G_A    
##  2 0.00668   chr2_203674547_C_A    
##  3 0.0497    chr2_203675250_G_A    
##  4 0.00971   chr2_203677114_C_CAA  
##  5 0.0119    chr2_203677388_CAT_C  
##  6 0.00669   chr2_203677388_C_CATAT
##  7 0.000301  chr2_203677810_A_AT   
##  8 0.0000397 chr2_203677955_C_T    
##  9 0.00669   chr2_203677967_C_T    
## 10 0.00667   chr2_203678432_A_G    
## # ℹ 1,380 more rows
```
…
