…
```r
results <- motifbreakR(snpList = GP1BA_olaps, filterp = TRUE,
                       pwmList = hocomoco,
                       threshold = 1e-3,
                       method = "ic",
                       bkg = c(A=0.25, C=0.25, G=0.25, T=0.25),
                       BPPARAM = BiocParallel::bpparam())
results_df = dplyr::as_tibble(as.data.frame(elementMetadata(results)))
results_df
```

```
## # A tibble: 30 × 19
##    SNP_id        REF   ALT   varType motifPos geneSymbol dataSource providerName
##    <chr>         <chr> <chr> <chr>   <I<list> <chr>      <chr>      <chr>       
##  1 chr17:492669… A     G     SNV     <dbl>    FOXF1      HOCOMOCO   FOXF1_f1    
##  2 chr17:492669… A     G     SNV     <dbl>    FOXF2      HOCOMOCO   FOXF2_f1    
##  3 chr17:492669… A     G     SNV     <dbl>    FOXJ2      HOCOMOCO   FOXJ2_f1    
##  4 chr17:492669… A     G     SNV     <dbl>    HIVEP2     HOCOMOCO   ZEP2_si     
##  5 chr17:492669… A     G     SNV     <dbl>    NFATC2     HOCOMOCO   NFAC2_f1    
##  6 chr17:492669… A     G     SNV     <dbl>    NFATC4     HOCOMOCO   NFAC4_f1    
##  7 chr17:492669… A     G     SNV     <dbl>    ZBTB4      HOCOMOCO   ZBTB4_si    
##  8 chr17:492680… G     A     SNV     <dbl>    HIVEP2     HOCOMOCO   ZEP2_si     
##  9 chr17:492680… G     A     SNV     <dbl>    IKZF1      HOCOMOCO   IKZF1_f1    
## 10 chr17:492680… G     A     SNV     <dbl>    KLF1       HOCOMOCO   KLF1_f1     
## # … with 20 more rows, and 11 more variables: providerId <chr>, seqMatch <chr>,
## #   pctRef <dbl>, pctAlt <dbl>, scoreRef <dbl>, scoreAlt <dbl>,
## #   Refpvalue <lgl>, Altpvalue <lgl>, altPos <int>, alleleDiff <dbl>,
## #   effect <chr>
```
…
